<?xml version="1.0" encoding="UTF-8"?>
<svg width="154px" height="94px" viewBox="0 0 154 94" version="1.1" xmlns="http://www.w3.org/2000/svg" xmlns:xlink="http://www.w3.org/1999/xlink">
    <!-- Generator: Sketch 55.2 (78181) - https://sketchapp.com -->
    <title>header_orientation_content</title>
    <desc>Created with Sketch.</desc>
    <g id="header_orientation_content" stroke="none" stroke-width="1" fill="none" fill-rule="evenodd">
        <rect fill="#FFFFFF" x="0" y="0" width="154" height="94"></rect>
        <g id="Group-3" transform="translate(27.000000, 6.000000)">
            <g id="Group-2" transform="translate(1.000000, 15.000000)">
                <rect id="Rectangle" fill="#F0F0F0" x="0" y="0" width="64" height="38"></rect>
                <rect id="Rectangle" fill="#F0F0F0" x="71" y="0" width="28" height="28"></rect>
                <rect id="Rectangle" fill="#F0F0F0" x="71" y="34" width="28" height="28"></rect>
                <g id="Group" transform="translate(12.000000, 44.000000)" stroke="#D6D6D6" stroke-linecap="square" stroke-width="2">
                    <path d="M0,1 L40,1" id="Line"></path>
                    <path d="M0,6 L40,6" id="Line"></path>
                    <path d="M0,11 L40,11" id="Line"></path>
                    <path d="M0,16 L23.7037037,16" id="Line"></path>
                </g>
            </g>
            <path d="M4.157,5.947 C4.31300078,5.947 4.44349947,5.9964995 4.5485,6.0955 C4.65350052,6.19450049 4.706,6.32199922 4.706,6.478 C4.706,6.62800075 4.65350052,6.7524995 4.5485,6.8515 C4.44349947,6.95050049 4.31300078,7 4.157,7 L1.232,7 C1.07599922,7 0.945500525,6.94750052 0.8405,6.8425 C0.735499475,6.73749947 0.683,6.60700078 0.683,6.451 L0.683,1.249 C0.683,1.09299922 0.73699946,0.962500525 0.845,0.8575 C0.95300054,0.752499475 1.09099916,0.7 1.259,0.7 C1.40900075,0.7 1.53799946,0.752499475 1.646,0.8575 C1.75400054,0.962500525 1.808,1.09299922 1.808,1.249 L1.808,5.947 L4.157,5.947 Z M11.537,3.85 C11.537,4.44400297 11.4050013,4.98849752 11.141,5.4835 C10.8769987,5.97850247 10.5125023,6.36999856 10.0475,6.658 C9.58249767,6.94600144 9.05900291,7.09 8.477,7.09 C7.89499709,7.09 7.37150232,6.94600144 6.9065,6.658 C6.44149767,6.36999856 6.0785013,5.97850247 5.8175,5.4835 C5.55649869,4.98849752 5.426,4.44400297 5.426,3.85 C5.426,3.25599703 5.55649869,2.71150247 5.8175,2.2165 C6.0785013,1.72149752 6.44149767,1.33000144 6.9065,1.042 C7.37150232,0.75399856 7.89499709,0.61 8.477,0.61 C9.05900291,0.61 9.58249767,0.75399856 10.0475,1.042 C10.5125023,1.33000144 10.8769987,1.72149752 11.141,2.2165 C11.4050013,2.71150247 11.537,3.25599703 11.537,3.85 Z M10.367,3.85 C10.367,3.44799799 10.2860008,3.08350163 10.124,2.7565 C9.96199919,2.42949836 9.73700144,2.17000096 9.449,1.978 C9.16099856,1.78599904 8.8370018,1.69 8.477,1.69 C8.11099817,1.69 7.78550142,1.78449905 7.5005,1.9735 C7.21549857,2.16250094 6.99350079,2.42199835 6.8345,2.752 C6.6754992,3.08200165 6.596,3.44799799 6.596,3.85 C6.596,4.25200201 6.6754992,4.61799835 6.8345,4.948 C6.99350079,5.27800165 7.21549857,5.53749905 7.5005,5.7265 C7.78550142,5.91550094 8.11099817,6.01 8.477,6.01 C8.8370018,6.01 9.16099856,5.91400096 9.449,5.722 C9.73700144,5.52999904 9.96199919,5.27050163 10.124,4.9435 C10.2860008,4.61649836 10.367,4.25200201 10.367,3.85 Z M17.216,3.598 C17.3720008,3.598 17.5009995,3.65049947 17.603,3.7555 C17.7050005,3.86050052 17.756,3.99099922 17.756,4.147 L17.756,6.055 C17.756,6.26500105 17.6630009,6.42699943 17.477,6.541 C16.8889971,6.90700183 16.2440035,7.09 15.542,7.09 C14.947997,7.09 14.3990025,6.94450145 13.895,6.6535 C13.3909975,6.36249854 12.9920015,5.96950247 12.698,5.4745 C12.4039985,4.97949752 12.257,4.43800294 12.257,3.85 C12.257,3.26199706 12.4039985,2.72050247 12.698,2.2255 C12.9920015,1.73049752 13.3909975,1.33750145 13.895,1.0465 C14.3990025,0.755498545 14.947997,0.61 15.542,0.61 C16.136003,0.61 16.6519978,0.7299988 17.09,0.97 C17.1800004,1.01800024 17.2474998,1.08099961 17.2925,1.159 C17.3375002,1.23700039 17.36,1.32099955 17.36,1.411 C17.36,1.56100075 17.3105005,1.69149944 17.2115,1.8025 C17.1124995,1.91350055 16.9910007,1.969 16.847,1.969 C16.757,1.969 16.6580005,1.94500024 16.55,1.897 C16.2259984,1.75899931 15.8900017,1.69 15.542,1.69 C15.1579981,1.69 14.8040016,1.78749902 14.48,1.9825 C14.1559984,2.17750097 13.8995009,2.43999835 13.7105,2.77 C13.5214991,3.10000165 13.427,3.45999805 13.427,3.85 C13.427,4.24000195 13.5214991,4.59999835 13.7105,4.93 C13.8995009,5.26000165 14.1559984,5.52249902 14.48,5.7175 C14.8040016,5.91250097 15.1579981,6.01 15.542,6.01 C15.7100008,6.01 15.889999,5.99500015 16.082,5.965 C16.274001,5.93499985 16.4419993,5.89600024 16.586,5.848 L16.586,4.678 L15.74,4.678 C15.5839992,4.678 15.4535005,4.62700051 15.3485,4.525 C15.2434995,4.42299949 15.191,4.29400078 15.191,4.138 C15.191,3.98199922 15.2434995,3.85300051 15.3485,3.751 C15.4535005,3.64899949 15.5839992,3.598 15.74,3.598 L17.216,3.598 Z M24.632,3.85 C24.632,4.44400297 24.5000013,4.98849752 24.236,5.4835 C23.9719987,5.97850247 23.6075023,6.36999856 23.1425,6.658 C22.6774977,6.94600144 22.1540029,7.09 21.572,7.09 C20.9899971,7.09 20.4665023,6.94600144 20.0015,6.658 C19.5364977,6.36999856 19.1735013,5.97850247 18.9125,5.4835 C18.6514987,4.98849752 18.521,4.44400297 18.521,3.85 C18.521,3.25599703 18.6514987,2.71150247 18.9125,2.2165 C19.1735013,1.72149752 19.5364977,1.33000144 20.0015,1.042 C20.4665023,0.75399856 20.9899971,0.61 21.572,0.61 C22.1540029,0.61 22.6774977,0.75399856 23.1425,1.042 C23.6075023,1.33000144 23.9719987,1.72149752 24.236,2.2165 C24.5000013,2.71150247 24.632,3.25599703 24.632,3.85 Z M23.462,3.85 C23.462,3.44799799 23.3810008,3.08350163 23.219,2.7565 C23.0569992,2.42949836 22.8320014,2.17000096 22.544,1.978 C22.2559986,1.78599904 21.9320018,1.69 21.572,1.69 C21.2059982,1.69 20.8805014,1.78449905 20.5955,1.9735 C20.3104986,2.16250094 20.0885008,2.42199835 19.9295,2.752 C19.7704992,3.08200165 19.691,3.44799799 19.691,3.85 C19.691,4.25200201 19.7704992,4.61799835 19.9295,4.948 C20.0885008,5.27800165 20.3104986,5.53749905 20.5955,5.7265 C20.8805014,5.91550094 21.2059982,6.01 21.572,6.01 C21.9320018,6.01 22.2559986,5.91400096 22.544,5.722 C22.8320014,5.52999904 23.0569992,5.27050163 23.219,4.9435 C23.3810008,4.61649836 23.462,4.25200201 23.462,3.85 Z" id="LOGO" fill="#333333" fill-rule="nonzero"></path>
            <path d="M43.12,1.4 C43.2480006,1.4 43.3519996,1.44266624 43.432,1.528 C43.5120004,1.61333376 43.552,1.71999936 43.552,1.848 L43.552,6.512 C43.552,6.65066736 43.5053338,6.7666662 43.412,6.86 C43.3186662,6.9533338 43.2026674,7 43.064,7 C42.989333,7 42.9160004,6.98800012 42.844,6.964 C42.7719996,6.93999988 42.7200002,6.90666688 42.688,6.864 L39.752,3.136 L39.752,6.552 C39.752,6.68000064 39.7106671,6.78666624 39.628,6.872 C39.5453329,6.95733376 39.437334,7 39.304,7 C39.1759994,7 39.0720004,6.95733376 38.992,6.872 C38.9119996,6.78666624 38.872,6.68000064 38.872,6.552 L38.872,1.888 C38.872,1.74933264 38.9186662,1.6333338 39.012,1.54 C39.1053338,1.4466662 39.2213326,1.4 39.36,1.4 C39.4400004,1.4 39.5186663,1.41599984 39.596,1.448 C39.6733337,1.48000016 39.7306665,1.5226664 39.768,1.576 L42.68,5.288 L42.68,1.848 C42.68,1.71999936 42.7213329,1.61333376 42.804,1.528 C42.8866671,1.44266624 42.9919994,1.4 43.12,1.4 Z M49.144,6.376 C49.1706668,6.44533368 49.184,6.50933304 49.184,6.568 C49.184,6.70666736 49.1386671,6.81999956 49.048,6.908 C48.9573329,6.99600044 48.8533339,7.04 48.736,7.04 C48.6399995,7.04 48.5533337,7.01066696 48.476,6.952 C48.3986663,6.89333304 48.3386669,6.81333384 48.296,6.712 L47.88,5.744 L45.496,5.744 L45.08,6.72 C45.0426665,6.82133384 44.9853337,6.89999972 44.908,6.956 C44.8306663,7.01200028 44.7466671,7.04 44.656,7.04 C44.5173326,7.04 44.4120004,7.00266704 44.34,6.928 C44.2679996,6.85333296 44.232,6.75200064 44.232,6.624 C44.232,6.57599976 44.2399999,6.5253336 44.256,6.472 L46.248,1.688 C46.2906669,1.5813328 46.3546662,1.49866696 46.44,1.44 C46.5253338,1.38133304 46.6213328,1.35733328 46.728,1.368 C46.8240005,1.368 46.9133329,1.39599972 46.996,1.452 C47.0786671,1.50800028 47.1386665,1.58666616 47.176,1.688 L49.144,6.376 Z M45.888,4.824 L47.488,4.824 L46.68,2.952 L45.888,4.824 Z M53.952,1.384 C54.085334,1.384 54.2013328,1.42933288 54.3,1.52 C54.3986672,1.61066712 54.448,1.71999936 54.448,1.848 C54.448,1.91733368 54.4320002,1.98933296 54.4,2.064 L52.424,6.688 C52.3759998,6.78933384 52.3093338,6.8666664 52.224,6.92 C52.1386662,6.9733336 52.0480005,7 51.952,7 C51.8613329,6.99466664 51.7773337,6.96666692 51.7,6.916 C51.6226663,6.86533308 51.5626669,6.79200048 51.52,6.696 L49.544,2.056 C49.5173332,2.0026664 49.504,1.9360004 49.504,1.856 C49.504,1.71199928 49.5573328,1.59600044 49.664,1.508 C49.7706672,1.41999956 49.8799994,1.376 49.992,1.376 C50.0826671,1.376 50.1679996,1.4026664 50.248,1.456 C50.3280004,1.5093336 50.3893331,1.58666616 50.432,1.688 L52.04,5.472 L53.512,1.688 C53.5546669,1.59199952 53.6159996,1.5173336 53.696,1.464 C53.7760004,1.4106664 53.8613329,1.384 53.952,1.384 Z M56.288,6.512 C56.288,6.65066736 56.2373338,6.7666662 56.136,6.86 C56.0346662,6.9533338 55.917334,7 55.784,7 C55.6399993,7 55.5213338,6.9533338 55.428,6.86 C55.3346662,6.7666662 55.288,6.65066736 55.288,6.512 L55.288,1.888 C55.288,1.74933264 55.3359995,1.6333338 55.432,1.54 C55.5280005,1.4466662 55.6506659,1.4 55.8,1.4 C55.933334,1.4 56.0479995,1.4466662 56.144,1.54 C56.2400005,1.6333338 56.288,1.74933264 56.288,1.888 L56.288,6.512 Z M61.616,3.976 C61.7546674,3.976 61.8693329,4.0226662 61.96,4.116 C62.0506671,4.2093338 62.096,4.32533264 62.096,4.464 L62.096,6.16 C62.096,6.3466676 62.0133342,6.49066616 61.848,6.592 C61.3253307,6.91733496 60.7520031,7.08 60.128,7.08 C59.5999974,7.08 59.1120022,6.95066796 58.664,6.692 C58.2159978,6.43333204 57.8613346,6.0840022 57.6,5.644 C57.3386654,5.2039978 57.208,4.72266928 57.208,4.2 C57.208,3.67733072 57.3386654,3.1960022 57.6,2.756 C57.8613346,2.3159978 58.2159978,1.96666796 58.664,1.708 C59.1120022,1.44933204 59.5999974,1.32 60.128,1.32 C60.6560026,1.32 61.1146647,1.4266656 61.504,1.64 C61.5840004,1.68266688 61.6439998,1.73866632 61.684,1.808 C61.7240002,1.87733368 61.744,1.9519996 61.744,2.032 C61.744,2.165334 61.7000004,2.28133284 61.612,2.38 C61.5239996,2.47866716 61.4160006,2.528 61.288,2.528 C61.208,2.528 61.1200005,2.50666688 61.024,2.464 C60.7359986,2.34133272 60.4373349,2.28 60.128,2.28 C59.786665,2.28 59.4720014,2.3666658 59.184,2.54 C58.8959986,2.7133342 58.6680008,2.9466652 58.5,3.24 C58.3319992,3.5333348 58.248,3.8533316 58.248,4.2 C58.248,4.5466684 58.3319992,4.8666652 58.5,5.16 C58.6680008,5.4533348 58.8959986,5.6866658 59.184,5.86 C59.4720014,6.0333342 59.786665,6.12 60.128,6.12 C60.2773341,6.12 60.4373325,6.1066668 60.608,6.08 C60.7786675,6.0533332 60.9279994,6.01866688 61.056,5.976 L61.056,4.936 L60.304,4.936 C60.1653326,4.936 60.0493338,4.89066712 59.956,4.8 C59.8626662,4.70933288 59.816,4.59466736 59.816,4.456 C59.816,4.31733264 59.8626662,4.20266712 59.956,4.112 C60.0493338,4.02133288 60.1653326,3.976 60.304,3.976 L61.616,3.976 Z M67.448,6.376 C67.4746668,6.44533368 67.488,6.50933304 67.488,6.568 C67.488,6.70666736 67.4426671,6.81999956 67.352,6.908 C67.2613329,6.99600044 67.1573339,7.04 67.04,7.04 C66.9439995,7.04 66.8573337,7.01066696 66.78,6.952 C66.7026663,6.89333304 66.6426669,6.81333384 66.6,6.712 L66.184,5.744 L63.8,5.744 L63.384,6.72 C63.3466665,6.82133384 63.2893337,6.89999972 63.212,6.956 C63.1346663,7.01200028 63.0506671,7.04 62.96,7.04 C62.8213326,7.04 62.7160004,7.00266704 62.644,6.928 C62.5719996,6.85333296 62.536,6.75200064 62.536,6.624 C62.536,6.57599976 62.5439999,6.5253336 62.56,6.472 L64.552,1.688 C64.5946669,1.5813328 64.6586662,1.49866696 64.744,1.44 C64.8293338,1.38133304 64.9253328,1.35733328 65.032,1.368 C65.1280005,1.368 65.2173329,1.39599972 65.3,1.452 C65.3826671,1.50800028 65.4426665,1.58666616 65.48,1.688 L67.448,6.376 Z M64.192,4.824 L65.792,4.824 L64.984,2.952 L64.192,4.824 Z M71.848,1.4 C71.9920007,1.4 72.1093329,1.44266624 72.2,1.528 C72.2906671,1.61333376 72.336,1.72533264 72.336,1.864 C72.336,2.00266736 72.2906671,2.11333292 72.2,2.196 C72.1093329,2.27866708 71.9920007,2.32 71.848,2.32 L70.592,2.32 L70.592,6.512 C70.592,6.65066736 70.5413338,6.7666662 70.44,6.86 C70.3386662,6.9533338 70.2133341,7 70.064,7 C69.9146659,7 69.7920005,6.9533338 69.696,6.86 C69.5999995,6.7666662 69.552,6.65066736 69.552,6.512 L69.552,2.32 L68.296,2.32 C68.1519993,2.32 68.0346671,2.27733376 67.944,2.192 C67.8533329,2.10666624 67.808,1.99466736 67.808,1.856 C67.808,1.722666 67.8546662,1.61333376 67.948,1.528 C68.0413338,1.44266624 68.1573326,1.4 68.296,1.4 L71.848,1.4 Z M74.176,6.512 C74.176,6.65066736 74.1253338,6.7666662 74.024,6.86 C73.9226662,6.9533338 73.805334,7 73.672,7 C73.5279993,7 73.4093338,6.9533338 73.316,6.86 C73.2226662,6.7666662 73.176,6.65066736 73.176,6.512 L73.176,1.888 C73.176,1.74933264 73.2239995,1.6333338 73.32,1.54 C73.4160005,1.4466662 73.5386659,1.4 73.688,1.4 C73.821334,1.4 73.9359995,1.4466662 74.032,1.54 C74.1280005,1.6333338 74.176,1.74933264 74.176,1.888 L74.176,6.512 Z M80.528,4.2 C80.528,4.72800264 80.4106678,5.2119978 80.176,5.652 C79.9413322,6.0920022 79.6173354,6.43999872 79.204,6.696 C78.7906646,6.95200128 78.3253359,7.08 77.808,7.08 C77.2906641,7.08 76.8253354,6.95200128 76.412,6.696 C75.9986646,6.43999872 75.6760012,6.0920022 75.444,5.652 C75.2119988,5.2119978 75.096,4.72800264 75.096,4.2 C75.096,3.67199736 75.2119988,3.1880022 75.444,2.748 C75.6760012,2.3079978 75.9986646,1.96000128 76.412,1.704 C76.8253354,1.44799872 77.2906641,1.32 77.808,1.32 C78.3253359,1.32 78.7906646,1.44799872 79.204,1.704 C79.6173354,1.96000128 79.9413322,2.3079978 80.176,2.748 C80.4106678,3.1880022 80.528,3.67199736 80.528,4.2 Z M79.488,4.2 C79.488,3.84266488 79.4160007,3.51866812 79.272,3.228 C79.1279993,2.93733188 78.9280013,2.70666752 78.672,2.536 C78.4159987,2.36533248 78.1280016,2.28 77.808,2.28 C77.482665,2.28 77.1933346,2.36399916 76.94,2.532 C76.6866654,2.70000084 76.489334,2.9306652 76.348,3.224 C76.206666,3.5173348 76.136,3.84266488 76.136,4.2 C76.136,4.55733512 76.206666,4.8826652 76.348,5.176 C76.489334,5.4693348 76.6866654,5.69999916 76.94,5.868 C77.1933346,6.03600084 77.482665,6.12 77.808,6.12 C78.1280016,6.12 78.4159987,6.03466752 78.672,5.864 C78.9280013,5.69333248 79.1279993,5.46266812 79.272,5.172 C79.4160007,4.88133188 79.488,4.55733512 79.488,4.2 Z M85.696,1.4 C85.8240006,1.4 85.9279996,1.44266624 86.008,1.528 C86.0880004,1.61333376 86.128,1.71999936 86.128,1.848 L86.128,6.512 C86.128,6.65066736 86.0813338,6.7666662 85.988,6.86 C85.8946662,6.9533338 85.7786674,7 85.64,7 C85.565333,7 85.4920004,6.98800012 85.42,6.964 C85.3479996,6.93999988 85.2960002,6.90666688 85.264,6.864 L82.328,3.136 L82.328,6.552 C82.328,6.68000064 82.2866671,6.78666624 82.204,6.872 C82.1213329,6.95733376 82.013334,7 81.88,7 C81.7519994,7 81.6480004,6.95733376 81.568,6.872 C81.4879996,6.78666624 81.448,6.68000064 81.448,6.552 L81.448,1.888 C81.448,1.74933264 81.4946662,1.6333338 81.588,1.54 C81.6813338,1.4466662 81.7973326,1.4 81.936,1.4 C82.0160004,1.4 82.0946663,1.41599984 82.172,1.448 C82.2493337,1.48000016 82.3066665,1.5226664 82.344,1.576 L85.256,5.288 L85.256,1.848 C85.256,1.71999936 85.2973329,1.61333376 85.38,1.528 C85.4626671,1.44266624 85.5679994,1.4 85.696,1.4 Z" id="NAVIGATION" fill="#333333" fill-rule="nonzero"></path>
            <g id="Orion_search" transform="translate(92.000000, 0.000000)" fill="#202020" fill-rule="nonzero">
                <path d="M5.27289191,4.7057298 C6.20299365,3.48235291 6.02616775,1.73955962 4.86347805,0.724091298 C3.70078835,-0.291377025 1.95006313,-0.232065667 0.858763888,0.859763665 C-0.232535355,1.951593 -0.291007451,3.70235776 0.725011299,4.86456827 C1.74103005,6.02677879 3.4838966,6.20277074 4.71174907,5.26714285 L7.31726456,7.88280515 C7.47339769,8.03901289 7.72659917,8.03907256 7.8828059,7.88293843 C8.03901263,7.7268043 8.03907231,7.47360119 7.8829392,7.31739344 L5.27289191,4.7057298 Z M2.93501889,5.06774259 C1.75721126,5.06774259 0.802409525,4.11293468 0.802409525,2.93511943 C0.802409525,1.75730418 1.75721126,0.802496271 2.93501889,0.802496271 C4.11282652,0.802496271 5.06762826,1.75730418 5.06762826,2.93511943 C5.06748107,4.1128737 4.11276555,5.06759539 2.93501889,5.06774259 Z" id="Shape"></path>
            </g>
        </g>
    </g>
</svg>