<?xml version="1.0" encoding="UTF-8"?>
<svg width="320px" height="60px" viewBox="0 0 320 60" version="1.1" xmlns="http://www.w3.org/2000/svg" xmlns:xlink="http://www.w3.org/1999/xlink">
    <!-- Generator: Sketch 56.2 (81672) - https://sketch.com -->
    <title>header_layout_8</title>
    <desc>Created with Sketch.</desc>
    <g id="header_layout_8" stroke="none" stroke-width="1" fill="none" fill-rule="evenodd">
        <rect fill="#FFFFFF" x="0" y="0" width="320" height="60"></rect>
        <path d="M20.79,20.245 C21.0500013,20.245 21.2674991,20.3274992 21.4425,20.4925 C21.6175009,20.6575008 21.705,20.8699987 21.705,21.13 C21.705,21.3800012 21.6175009,21.5874992 21.4425,21.7525 C21.2674991,21.9175008 21.0500013,22 20.79,22 L15.915,22 C15.6549987,22 15.4375009,21.9125009 15.2625,21.7375 C15.0874991,21.5624991 15,21.3450013 15,21.085 L15,12.415 C15,12.1549987 15.0899991,11.9375009 15.27,11.7625 C15.4500009,11.5874991 15.6799986,11.5 15.96,11.5 C16.2100012,11.5 16.4249991,11.5874991 16.605,11.7625 C16.7850009,11.9375009 16.875,12.1549987 16.875,12.415 L16.875,20.245 L20.79,20.245 Z M33.09,16.75 C33.09,17.7400049 32.8700022,18.6474959 32.43,19.4725 C31.9899978,20.2975041 31.3825039,20.9499976 30.6075,21.43 C29.8324961,21.9100024 28.9600048,22.15 27.99,22.15 C27.0199951,22.15 26.1475039,21.9100024 25.3725,21.43 C24.5974961,20.9499976 23.9925022,20.2975041 23.5575,19.4725 C23.1224978,18.6474959 22.905,17.7400049 22.905,16.75 C22.905,15.7599951 23.1224978,14.8525041 23.5575,14.0275 C23.9925022,13.2024959 24.5974961,12.5500024 25.3725,12.07 C26.1475039,11.5899976 27.0199951,11.35 27.99,11.35 C28.9600048,11.35 29.8324961,11.5899976 30.6075,12.07 C31.3825039,12.5500024 31.9899978,13.2024959 32.43,14.0275 C32.8700022,14.8525041 33.09,15.7599951 33.09,16.75 Z M31.14,16.75 C31.14,16.0799967 31.0050013,15.4725027 30.735,14.9275 C30.4649986,14.3824973 30.0900024,13.9500016 29.61,13.63 C29.1299976,13.3099984 28.590003,13.15 27.99,13.15 C27.3799969,13.15 26.8375024,13.3074984 26.3625,13.6225 C25.8874976,13.9375016 25.5175013,14.3699973 25.2525,14.92 C24.9874987,15.4700028 24.855,16.0799967 24.855,16.75 C24.855,17.4200033 24.9874987,18.0299973 25.2525,18.58 C25.5175013,19.1300027 25.8874976,19.5624984 26.3625,19.8775 C26.8375024,20.1925016 27.3799969,20.35 27.99,20.35 C28.590003,20.35 29.1299976,20.1900016 29.61,19.87 C30.0900024,19.5499984 30.4649986,19.1175027 30.735,18.5725 C31.0050013,18.0274973 31.14,17.4200033 31.14,16.75 Z M42.555,16.33 C42.8150013,16.33 43.0299991,16.4174991 43.2,16.5925 C43.3700008,16.7675009 43.455,16.9849987 43.455,17.245 L43.455,20.425 C43.455,20.7750018 43.3000015,21.0449991 42.99,21.235 C42.0099951,21.8450031 40.9350058,22.15 39.765,22.15 C38.774995,22.15 37.8600042,21.9075024 37.02,21.4225 C36.1799958,20.9374976 35.5150024,20.2825041 35.025,19.4575 C34.5349975,18.6324959 34.29,17.7300049 34.29,16.75 C34.29,15.7699951 34.5349975,14.8675041 35.025,14.0425 C35.5150024,13.2174959 36.1799958,12.5625024 37.02,12.0775 C37.8600042,11.5924976 38.774995,11.35 39.765,11.35 C40.7550049,11.35 41.6149963,11.549998 42.345,11.95 C42.4950007,12.0300004 42.6074996,12.1349994 42.6825,12.265 C42.7575004,12.3950007 42.795,12.5349993 42.795,12.685 C42.795,12.9350013 42.7125008,13.1524991 42.5475,13.3375 C42.3824992,13.5225009 42.1800012,13.615 41.94,13.615 C41.79,13.615 41.6250009,13.5750004 41.445,13.495 C40.9049973,13.2649989 40.3450029,13.15 39.765,13.15 C39.1249968,13.15 38.5350027,13.3124984 37.995,13.6375 C37.4549973,13.9625016 37.0275016,14.3999973 36.7125,14.95 C36.3974984,15.5000028 36.24,16.0999967 36.24,16.75 C36.24,17.4000033 36.3974984,17.9999972 36.7125,18.55 C37.0275016,19.1000028 37.4549973,19.5374984 37.995,19.8625 C38.5350027,20.1875016 39.1249968,20.35 39.765,20.35 C40.0450014,20.35 40.3449984,20.3250003 40.665,20.275 C40.9850016,20.2249998 41.2649988,20.1600004 41.505,20.08 L41.505,18.13 L40.095,18.13 C39.8349987,18.13 39.6175009,18.0450009 39.4425,17.875 C39.2674991,17.7049991 39.18,17.4900013 39.18,17.23 C39.18,16.9699987 39.2674991,16.7550009 39.4425,16.585 C39.6175009,16.4149991 39.8349987,16.33 40.095,16.33 L42.555,16.33 Z M54.915,16.75 C54.915,17.7400049 54.6950022,18.6474959 54.255,19.4725 C53.8149978,20.2975041 53.2075039,20.9499976 52.4325,21.43 C51.6574961,21.9100024 50.7850048,22.15 49.815,22.15 C48.8449951,22.15 47.9725039,21.9100024 47.1975,21.43 C46.4224961,20.9499976 45.8175022,20.2975041 45.3825,19.4725 C44.9474978,18.6474959 44.73,17.7400049 44.73,16.75 C44.73,15.7599951 44.9474978,14.8525041 45.3825,14.0275 C45.8175022,13.2024959 46.4224961,12.5500024 47.1975,12.07 C47.9725039,11.5899976 48.8449951,11.35 49.815,11.35 C50.7850048,11.35 51.6574961,11.5899976 52.4325,12.07 C53.2075039,12.5500024 53.8149978,13.2024959 54.255,14.0275 C54.6950022,14.8525041 54.915,15.7599951 54.915,16.75 Z M52.965,16.75 C52.965,16.0799967 52.8300013,15.4725027 52.56,14.9275 C52.2899986,14.3824973 51.9150024,13.9500016 51.435,13.63 C50.9549976,13.3099984 50.415003,13.15 49.815,13.15 C49.2049969,13.15 48.6625024,13.3074984 48.1875,13.6225 C47.7124976,13.9375016 47.3425013,14.3699973 47.0775,14.92 C46.8124987,15.4700028 46.68,16.0799967 46.68,16.75 C46.68,17.4200033 46.8124987,18.0299973 47.0775,18.58 C47.3425013,19.1300027 47.7124976,19.5624984 48.1875,19.8775 C48.6625024,20.1925016 49.2049969,20.35 49.815,20.35 C50.415003,20.35 50.9549976,20.1900016 51.435,19.87 C51.9150024,19.5499984 52.2899986,19.1175027 52.56,18.5725 C52.8300013,18.0274973 52.965,17.4200033 52.965,16.75 Z" id="LOGO" fill="#333333" fill-rule="nonzero"></path>
        <path d="M15,32.5 L305,32.5" id="Line" stroke="#000000" opacity="0.100000001" stroke-linecap="square"></path>
        <path d="M131.43,41.6 C131.622001,41.6 131.777999,41.6639994 131.898,41.792 C132.018001,41.9200006 132.078,42.079999 132.078,42.272 L132.078,49.268 C132.078,49.476001 132.008001,49.6499993 131.868,49.79 C131.727999,49.9300007 131.554001,50 131.346,50 C131.233999,50 131.124001,49.9820002 131.016,49.946 C130.907999,49.9099998 130.83,49.8600003 130.782,49.796 L126.378,44.204 L126.378,49.328 C126.378,49.520001 126.316001,49.6799994 126.192,49.808 C126.067999,49.9360006 125.906001,50 125.706,50 C125.513999,50 125.358001,49.9360006 125.238,49.808 C125.117999,49.6799994 125.058,49.520001 125.058,49.328 L125.058,42.332 C125.058,42.123999 125.127999,41.9500007 125.268,41.81 C125.408001,41.6699993 125.581999,41.6 125.79,41.6 C125.910001,41.6 126.027999,41.6239998 126.144,41.672 C126.260001,41.7200002 126.346,41.7839996 126.402,41.864 L130.77,47.432 L130.77,42.272 C130.77,42.079999 130.831999,41.9200006 130.956,41.792 C131.080001,41.6639994 131.237999,41.6 131.43,41.6 Z M140.466,49.064 C140.506,49.1680005 140.526,49.2639996 140.526,49.352 C140.526,49.560001 140.458001,49.7299993 140.322,49.862 C140.185999,49.9940007 140.030001,50.06 139.854,50.06 C139.709999,50.06 139.580001,50.0160004 139.464,49.928 C139.347999,49.8399996 139.258,49.7200008 139.194,49.568 L138.57,48.116 L134.994,48.116 L134.37,49.58 C134.314,49.7320008 134.228001,49.8499996 134.112,49.934 C133.995999,50.0180004 133.870001,50.06 133.734,50.06 C133.525999,50.06 133.368001,50.0040006 133.26,49.892 C133.151999,49.7799994 133.098,49.628001 133.098,49.436 C133.098,49.3639996 133.11,49.2880004 133.134,49.208 L136.122,42.032 C136.186,41.8719992 136.281999,41.7480004 136.41,41.66 C136.538001,41.5719996 136.681999,41.5359999 136.842,41.552 C136.986001,41.552 137.119999,41.5939996 137.244,41.678 C137.368001,41.7620004 137.458,41.8799992 137.514,42.032 L140.466,49.064 Z M135.582,46.736 L137.982,46.736 L136.77,43.928 L135.582,46.736 Z M147.678,41.576 C147.878001,41.576 148.051999,41.6439993 148.2,41.78 C148.348001,41.9160007 148.422,42.079999 148.422,42.272 C148.422,42.3760005 148.398,42.4839994 148.35,42.596 L145.386,49.532 C145.314,49.6840008 145.214001,49.7999996 145.086,49.88 C144.957999,49.9600004 144.822001,50 144.678,50 C144.541999,49.992 144.416001,49.9500004 144.3,49.874 C144.183999,49.7979996 144.094,49.6880007 144.03,49.544 L141.066,42.584 C141.026,42.5039996 141.006,42.4040006 141.006,42.284 C141.006,42.0679989 141.085999,41.8940007 141.246,41.762 C141.406001,41.6299993 141.569999,41.564 141.738,41.564 C141.874001,41.564 142.001999,41.6039996 142.122,41.684 C142.242001,41.7640004 142.334,41.8799992 142.398,42.032 L144.81,47.708 L147.018,42.032 C147.082,41.8879993 147.173999,41.7760004 147.294,41.696 C147.414001,41.6159996 147.541999,41.576 147.678,41.576 Z M151.182,49.268 C151.182,49.476001 151.106001,49.6499993 150.954,49.79 C150.801999,49.9300007 150.626001,50 150.426,50 C150.209999,50 150.032001,49.9300007 149.892,49.79 C149.751999,49.6499993 149.682,49.476001 149.682,49.268 L149.682,42.332 C149.682,42.123999 149.753999,41.9500007 149.898,41.81 C150.042001,41.6699993 150.225999,41.6 150.45,41.6 C150.650001,41.6 150.821999,41.6699993 150.966,41.81 C151.110001,41.9500007 151.182,42.123999 151.182,42.332 L151.182,49.268 Z M159.174,45.464 C159.382001,45.464 159.553999,45.5339993 159.69,45.674 C159.826001,45.8140007 159.894,45.987999 159.894,46.196 L159.894,48.74 C159.894,49.0200014 159.770001,49.2359992 159.522,49.388 C158.737996,49.8760024 157.878005,50.12 156.942,50.12 C156.149996,50.12 155.418003,49.9260019 154.746,49.538 C154.073997,49.1499981 153.542002,48.6260033 153.15,47.966 C152.757998,47.3059967 152.562,46.5840039 152.562,45.8 C152.562,45.0159961 152.757998,44.2940033 153.15,43.634 C153.542002,42.9739967 154.073997,42.4500019 154.746,42.062 C155.418003,41.6739981 156.149996,41.48 156.942,41.48 C157.734004,41.48 158.421997,41.6399984 159.006,41.96 C159.126001,42.0240003 159.216,42.1079995 159.276,42.212 C159.336,42.3160005 159.366,42.4279994 159.366,42.548 C159.366,42.748001 159.300001,42.9219993 159.168,43.07 C159.035999,43.2180007 158.874001,43.292 158.682,43.292 C158.562,43.292 158.430001,43.2600003 158.286,43.196 C157.853998,43.0119991 157.406002,42.92 156.942,42.92 C156.429997,42.92 155.958002,43.0499987 155.526,43.31 C155.093998,43.5700013 154.752001,43.9199978 154.5,44.36 C154.247999,44.8000022 154.122,45.2799974 154.122,45.8 C154.122,46.3200026 154.247999,46.7999978 154.5,47.24 C154.752001,47.6800022 155.093998,48.0299987 155.526,48.29 C155.958002,48.5500013 156.429997,48.68 156.942,48.68 C157.166001,48.68 157.405999,48.6600002 157.662,48.62 C157.918001,48.5799998 158.141999,48.5280003 158.334,48.464 L158.334,46.904 L157.206,46.904 C156.997999,46.904 156.824001,46.8360007 156.684,46.7 C156.543999,46.5639993 156.474,46.392001 156.474,46.184 C156.474,45.975999 156.543999,45.8040007 156.684,45.668 C156.824001,45.5319993 156.997999,45.464 157.206,45.464 L159.174,45.464 Z M167.922,49.064 C167.962,49.1680005 167.982,49.2639996 167.982,49.352 C167.982,49.560001 167.914001,49.7299993 167.778,49.862 C167.641999,49.9940007 167.486001,50.06 167.31,50.06 C167.165999,50.06 167.036001,50.0160004 166.92,49.928 C166.803999,49.8399996 166.714,49.7200008 166.65,49.568 L166.026,48.116 L162.45,48.116 L161.826,49.58 C161.77,49.7320008 161.684001,49.8499996 161.568,49.934 C161.451999,50.0180004 161.326001,50.06 161.19,50.06 C160.981999,50.06 160.824001,50.0040006 160.716,49.892 C160.607999,49.7799994 160.554,49.628001 160.554,49.436 C160.554,49.3639996 160.566,49.2880004 160.59,49.208 L163.578,42.032 C163.642,41.8719992 163.737999,41.7480004 163.866,41.66 C163.994001,41.5719996 164.137999,41.5359999 164.298,41.552 C164.442001,41.552 164.575999,41.5939996 164.7,41.678 C164.824001,41.7620004 164.914,41.8799992 164.97,42.032 L167.922,49.064 Z M163.038,46.736 L165.438,46.736 L164.226,43.928 L163.038,46.736 Z M174.522,41.6 C174.738001,41.6 174.913999,41.6639994 175.05,41.792 C175.186001,41.9200006 175.254,42.087999 175.254,42.296 C175.254,42.504001 175.186001,42.6699994 175.05,42.794 C174.913999,42.9180006 174.738001,42.98 174.522,42.98 L172.638,42.98 L172.638,49.268 C172.638,49.476001 172.562001,49.6499993 172.41,49.79 C172.257999,49.9300007 172.070001,50 171.846,50 C171.621999,50 171.438001,49.9300007 171.294,49.79 C171.149999,49.6499993 171.078,49.476001 171.078,49.268 L171.078,42.98 L169.194,42.98 C168.977999,42.98 168.802001,42.9160006 168.666,42.788 C168.529999,42.6599994 168.462,42.492001 168.462,42.284 C168.462,42.083999 168.531999,41.9200006 168.672,41.792 C168.812001,41.6639994 168.985999,41.6 169.194,41.6 L174.522,41.6 Z M178.014,49.268 C178.014,49.476001 177.938001,49.6499993 177.786,49.79 C177.633999,49.9300007 177.458001,50 177.258,50 C177.041999,50 176.864001,49.9300007 176.724,49.79 C176.583999,49.6499993 176.514,49.476001 176.514,49.268 L176.514,42.332 C176.514,42.123999 176.585999,41.9500007 176.73,41.81 C176.874001,41.6699993 177.057999,41.6 177.282,41.6 C177.482001,41.6 177.653999,41.6699993 177.798,41.81 C177.942001,41.9500007 178.014,42.123999 178.014,42.332 L178.014,49.268 Z M187.542,45.8 C187.542,46.592004 187.366002,47.3179967 187.014,47.978 C186.661998,48.6380033 186.176003,49.1599981 185.556,49.544 C184.935997,49.9280019 184.238004,50.12 183.462,50.12 C182.685996,50.12 181.988003,49.9280019 181.368,49.544 C180.747997,49.1599981 180.264002,48.6380033 179.916,47.978 C179.567998,47.3179967 179.394,46.592004 179.394,45.8 C179.394,45.007996 179.567998,44.2820033 179.916,43.622 C180.264002,42.9619967 180.747997,42.4400019 181.368,42.056 C181.988003,41.6719981 182.685996,41.48 183.462,41.48 C184.238004,41.48 184.935997,41.6719981 185.556,42.056 C186.176003,42.4400019 186.661998,42.9619967 187.014,43.622 C187.366002,44.2820033 187.542,45.007996 187.542,45.8 Z M185.982,45.8 C185.982,45.2639973 185.874001,44.7780022 185.658,44.342 C185.441999,43.9059978 185.142002,43.5600013 184.758,43.304 C184.373998,43.0479987 183.942002,42.92 183.462,42.92 C182.973998,42.92 182.540002,43.0459987 182.16,43.298 C181.779998,43.5500013 181.484001,43.8959978 181.272,44.336 C181.059999,44.7760022 180.954,45.2639973 180.954,45.8 C180.954,46.3360027 181.059999,46.8239978 181.272,47.264 C181.484001,47.7040022 181.779998,48.0499987 182.16,48.302 C182.540002,48.5540013 182.973998,48.68 183.462,48.68 C183.942002,48.68 184.373998,48.5520013 184.758,48.296 C185.142002,48.0399987 185.441999,47.6940022 185.658,47.258 C185.874001,46.8219978 185.982,46.3360027 185.982,45.8 Z M195.294,41.6 C195.486001,41.6 195.641999,41.6639994 195.762,41.792 C195.882001,41.9200006 195.942,42.079999 195.942,42.272 L195.942,49.268 C195.942,49.476001 195.872001,49.6499993 195.732,49.79 C195.591999,49.9300007 195.418001,50 195.21,50 C195.097999,50 194.988001,49.9820002 194.88,49.946 C194.771999,49.9099998 194.694,49.8600003 194.646,49.796 L190.242,44.204 L190.242,49.328 C190.242,49.520001 190.180001,49.6799994 190.056,49.808 C189.931999,49.9360006 189.770001,50 189.57,50 C189.377999,50 189.222001,49.9360006 189.102,49.808 C188.981999,49.6799994 188.922,49.520001 188.922,49.328 L188.922,42.332 C188.922,42.123999 188.991999,41.9500007 189.132,41.81 C189.272001,41.6699993 189.445999,41.6 189.654,41.6 C189.774001,41.6 189.891999,41.6239998 190.008,41.672 C190.124001,41.7200002 190.21,41.7839996 190.266,41.864 L194.634,47.432 L194.634,42.272 C194.634,42.079999 194.695999,41.9200006 194.82,41.792 C194.944001,41.6639994 195.101999,41.6 195.294,41.6 Z" id="NAVIGATION" fill="#333333" fill-rule="nonzero"></path>
        <path d="M294.514286,43.5 L294,43.5 L294,42 L294.514286,42 L305.485714,42 L306,42 L306,43.5 L305.485714,43.5 L294.514286,43.5 Z M294.314286,46.9782609 L294,46.9782609 L294,45.4782609 L294.314286,45.4782609 L301.019048,45.4782609 L301.333333,45.4782609 L301.333333,46.9782609 L301.019048,46.9782609 L294.314286,46.9782609 Z M294.514286,50.4565217 L294,50.4565217 L294,48.9565217 L294.514286,48.9565217 L305.485714,48.9565217 L306,48.9565217 L306,50.4565217 L305.485714,50.4565217 L294.514286,50.4565217 Z" id="Combined-Shape" fill="#424851"></path>
        <g id="Orion_search" transform="translate(14.000000, 40.000000)" fill="#202020" fill-rule="nonzero">
            <path d="M7.90933787,7.05859471 C9.30449047,5.22352937 9.03925162,2.60933943 7.29521707,1.08613695 C5.55118253,-0.437065537 2.9250947,-0.3480985 1.28814583,1.2896455 C-0.348803033,2.9273895 -0.436511177,5.55353663 1.08751695,7.29685241 C2.61154507,9.04016818 5.2258449,9.30415611 7.06762361,7.90071428 L10.9758968,11.8242077 C11.2100965,12.0585193 11.5898987,12.0586088 11.8242088,11.8244076 C12.0585189,11.5902065 12.0586085,11.2104018 11.8244088,10.9760902 L7.90933787,7.05859471 Z M4.40252834,7.60161388 C2.63581689,7.60161388 1.20361429,6.16940201 1.20361429,4.40267914 C1.20361429,2.63595627 2.63581689,1.20374441 4.40252834,1.20374441 C6.16923978,1.20374441 7.60144239,2.63595627 7.60144239,4.40267914 C7.6012216,6.16931055 6.16914832,7.60139309 4.40252834,7.60161388 Z" id="Shape"></path>
        </g>
        <rect id="Rectangle" fill="#B5B5B5" x="150" y="5" width="155" height="22"></rect>
        <path d="M202.815,15.32 C203.228335,15.4400006 203.548332,15.6499985 203.775,15.95 C204.001668,16.2500015 204.115,16.6166645 204.115,17.05 C204.115,17.650003 203.891669,18.1249983 203.445,18.475 C202.998331,18.8250017 202.391671,19 201.625,19 L198.245,19 L198.245,11.88 L201.525,11.88 C202.265004,11.88 202.849998,12.0449984 203.28,12.375 C203.710002,12.7050017 203.925,13.1566638 203.925,13.73 C203.925,14.1033352 203.826668,14.4299986 203.63,14.71 C203.433332,14.9900014 203.161668,15.1933327 202.815,15.32 Z M199.765,14.78 L201.265,14.78 C201.665002,14.78 201.963332,14.7116674 202.16,14.575 C202.356668,14.4383327 202.455,14.2266681 202.455,13.94 C202.455,13.6466652 202.356668,13.4300007 202.16,13.29 C201.963332,13.1499993 201.665002,13.08 201.265,13.08 L199.765,13.08 L199.765,14.78 Z M201.445,17.8 C201.865002,17.8 202.169999,17.7283341 202.36,17.585 C202.550001,17.441666 202.645,17.2133349 202.645,16.9 C202.645,16.5799984 202.550001,16.3466674 202.36,16.2 C202.169999,16.0533326 201.865002,15.98 201.445,15.98 L199.765,15.98 L199.765,17.8 L201.445,17.8 Z M210.645,19 L209.965,17.42 L206.635,17.42 L205.955,19 L204.385,19 L207.655,11.88 L208.915,11.88 L212.185,19 L210.645,19 Z M207.155,16.23 L209.455,16.23 L208.305,13.56 L207.155,16.23 Z M217.495,11.88 L218.965,11.88 L218.965,19 L217.805,19 L214.255,14.46 L214.255,19 L212.795,19 L212.795,11.88 L213.945,11.88 L217.495,16.41 L217.495,11.88 Z M225.095,11.88 L226.565,11.88 L226.565,19 L225.405,19 L221.855,14.46 L221.855,19 L220.395,19 L220.395,11.88 L221.545,11.88 L225.095,16.41 L225.095,11.88 Z M227.995,19 L227.995,11.88 L232.905,11.88 L232.905,13.09 L229.515,13.09 L229.515,14.77 L232.695,14.77 L232.695,15.99 L229.515,15.99 L229.515,17.79 L232.905,17.79 L232.905,19 L227.995,19 Z M239.995,19 L238.345,19 L237.435,16.63 C237.361666,16.4433324 237.250001,16.3133337 237.1,16.24 C236.949999,16.1666663 236.761668,16.13 236.535,16.13 L235.525,16.13 L235.525,19 L233.985,19 L233.985,11.88 L237.155,11.88 C237.981671,11.88 238.608331,12.0599982 239.035,12.42 C239.461669,12.7800018 239.675,13.2966633 239.675,13.97 C239.675,14.4433357 239.550001,14.8499983 239.3,15.19 C239.049999,15.5300017 238.691669,15.7733326 238.225,15.92 C238.645002,16.0066671 238.948332,16.2966642 239.135,16.79 L239.995,19 Z M236.925,14.94 C237.371669,14.94 237.698332,14.8650008 237.905,14.715 C238.111668,14.5649993 238.215,14.3300016 238.215,14.01 C238.215,13.6899984 238.111668,13.4550008 237.905,13.305 C237.698332,13.1549993 237.371669,13.08 236.925,13.08 L235.505,13.08 L235.505,14.94 L236.925,14.94 Z M249.315,19 L248.635,17.42 L245.305,17.42 L244.625,19 L243.055,19 L246.325,11.88 L247.585,11.88 L250.855,19 L249.315,19 Z M245.825,16.23 L248.125,16.23 L246.975,13.56 L245.825,16.23 Z M251.465,11.88 L254.215,11.88 C254.995004,11.88 255.664997,12.0199986 256.225,12.3 C256.785003,12.5800014 257.213332,12.986664 257.51,13.52 C257.806668,14.053336 257.955,14.6899963 257.955,15.43 C257.955,16.1766704 257.808335,16.816664 257.515,17.35 C257.221665,17.883336 256.795003,18.2916653 256.235,18.575 C255.674997,18.8583348 255.001671,19 254.215,19 L251.465,19 L251.465,11.88 Z M254.115,17.74 C255.635008,17.74 256.395,16.9700077 256.395,15.43 C256.395,13.9033257 255.635008,13.14 254.115,13.14 L253.025,13.14 L253.025,17.74 L254.115,17.74 Z" id="BANNERAD" fill="#FFFFFF" fill-rule="nonzero"></path>
    </g>
</svg>