<?xml version="1.0" encoding="UTF-8"?>
<svg width="154px" height="26px" viewBox="0 0 154 26" version="1.1" xmlns="http://www.w3.org/2000/svg" xmlns:xlink="http://www.w3.org/1999/xlink">
    <!-- Generator: Sketch 56.2 (81672) - https://sketch.com -->
    <title>pagination_infinite</title>
    <desc>Created with Sketch.</desc>
    <g id="pagination_infinite" stroke="none" stroke-width="1" fill="none" fill-rule="evenodd">
        <rect fill="#FFFFFF" x="0" y="0" width="154" height="26"></rect>
        <g id="Group" transform="translate(64.000000, 8.000000)" fill="#B5B5B5">
            <polygon id="Rectangle" points="5.55555556 0 10 0 4.44444444 10 0 10"></polygon>
            <polygon id="Rectangle" opacity="0.5" points="13.5555556 0 18 0 12.4444444 10 8 10"></polygon>
            <polygon id="Rectangle" opacity="0.25" points="21.5555556 0 26 0 20.4444444 10 16 10"></polygon>
        </g>
    </g>
</svg>