<?xml version="1.0" encoding="UTF-8"?>
<svg width="154px" height="50px" viewBox="0 0 154 50" version="1.1" xmlns="http://www.w3.org/2000/svg" xmlns:xlink="http://www.w3.org/1999/xlink">
    <!-- Generator: Sketch 57.1 (83088) - https://sketch.com -->
    <title>preset_font_1</title>
    <desc>Created with Sketch.</desc>
    <g id="preset_font_1" stroke="none" stroke-width="1" fill="none" fill-rule="evenodd">
        <rect fill="#FFFFFF" x="0" y="0" width="154" height="50"></rect>
        <path d="M39.56,31 L33.58,31 L33.58,30.24 C33.846668,30.106666 34.1066654,29.9933338 34.36,29.9 C34.6133346,29.8066662 34.8866652,29.726667 35.18,29.66 L35.18,21.3 L35.28,18.96 L35.12,18.96 L34.46,21.1 L30.6,31 L29.68,31 L25.84,21.18 L25.12,18.84 L24.94,18.84 L24.96,21.38 L24.96,29.58 C25.2133346,29.6333336 25.4933318,29.7199994 25.8,29.84 C26.1066682,29.9600006 26.393332,30.0933326 26.66,30.24 L26.66,31 L21.78,31 L21.78,30.24 C21.9933344,30.1333328 22.2566651,30.0066674 22.57,29.86 C22.8833349,29.7133326 23.1799986,29.6133336 23.46,29.56 L23.46,18.34 C23.193332,18.2866664 22.9100015,18.2133338 22.61,18.12 C22.3099985,18.0266662 22.0466678,17.9066674 21.82,17.76 L21.82,17 L27.24,17 L30.3,25.14 L30.88,27.06 L30.9,27.06 L31.5,25.1 L34.62,17 L39.58,17 L39.58,17.76 C39.3533322,17.893334 39.1100013,18.0099995 38.85,18.11 C38.5899987,18.2100005 38.326668,18.2866664 38.06,18.34 L38.06,29.68 C38.3400014,29.7333336 38.6099987,29.8133328 38.87,29.92 C39.1300013,30.0266672 39.359999,30.1333328 39.56,30.24 L39.56,31 Z M49.7,29.32 C49.5933328,29.5466678 49.4233345,29.7766655 49.19,30.01 C48.9566655,30.2433345 48.6700017,30.4499991 48.33,30.63 C47.9899983,30.8100009 47.5966689,30.9566661 47.15,31.07 C46.7033311,31.1833339 46.2200026,31.24 45.7,31.24 C44.8733292,31.24 44.1400032,31.1166679 43.5,30.87 C42.8599968,30.6233321 42.3266688,30.2700023 41.9,29.81 C41.4733312,29.3499977 41.1500011,28.8000032 40.93,28.16 C40.7099989,27.5199968 40.6,26.800004 40.6,26 C40.6,24.2933248 41.0466622,22.9933378 41.94,22.1 C42.8333378,21.2066622 44.0733254,20.76 45.66,20.76 C46.3400034,20.76 46.9766637,20.8533324 47.57,21.04 C48.1633363,21.2266676 48.6566647,21.5333312 49.05,21.96 C49.4433353,22.3866688 49.7166659,22.9466632 49.87,23.64 C50.0233341,24.3333368 50.0133342,25.179995 49.84,26.18 L43.7,26.18 C43.7133334,27.2333386 43.9833307,28.0733302 44.51,28.7 C45.0366693,29.3266698 45.8133282,29.64 46.84,29.64 C47.2800022,29.64 47.7366643,29.573334 48.21,29.44 C48.6833357,29.306666 49.053332,29.1333344 49.32,28.92 L49.7,29.32 Z M45.58,21.9 C45.313332,21.9 45.0766677,21.9466662 44.87,22.04 C44.6633323,22.1333338 44.4833341,22.3033321 44.33,22.55 C44.1766659,22.7966679 44.0533338,23.1299979 43.96,23.55 C43.8666662,23.9700021 43.8000002,24.4999968 43.76,25.14 L46.98,25.14 C47.0733338,24.0999948 47.0133344,23.3000028 46.8,22.74 C46.5866656,22.1799972 46.180003,21.9 45.58,21.9 Z M56,20.76 C56.866671,20.76 57.5866638,20.8499991 58.16,21.03 C58.7333362,21.2100009 59.1666652,21.433332 59.46,21.7 C60.0866698,21.0199966 60.8066626,20.546668 61.62,20.28 C61.7133338,20.346667 61.8066662,20.4433327 61.9,20.57 C61.9933338,20.6966673 62.073333,20.8333326 62.14,20.98 C62.206667,21.1266674 62.2599998,21.2733326 62.3,21.42 C62.3400002,21.5666674 62.36,21.6866662 62.36,21.78 L62.1,22.26 L60,22.26 C60.1466674,22.4466676 60.2833327,22.6899985 60.41,22.99 C60.5366673,23.2900015 60.6,23.6466646 60.6,24.06 C60.6,24.5000022 60.5066676,24.9133314 60.32,25.3 C60.1333324,25.6866686 59.8500019,26.0299985 59.47,26.33 C59.0899981,26.6300015 58.6100029,26.8666658 58.03,27.04 C57.4499971,27.2133342 56.7733372,27.3 56,27.3 C55.7733322,27.3 55.5700009,27.2966667 55.39,27.29 C55.2099991,27.2833333 55.053334,27.2666668 54.92,27.24 C54.8666664,27.3200004 54.8100003,27.4166661 54.75,27.53 C54.6899997,27.6433339 54.66,27.7533328 54.66,27.86 C54.66,28.0866678 54.8199984,28.266666 55.14,28.4 C55.4600016,28.533334 55.8666642,28.6533328 56.36,28.76 C56.8533358,28.8666672 57.3833305,28.986666 57.95,29.12 C58.5166695,29.253334 59.0466642,29.4299989 59.54,29.65 C60.0333358,29.8700011 60.446665,30.1566649 60.78,30.51 C61.113335,30.8633351 61.2866666,31.3199972 61.3,31.88 C61.3133334,32.413336 61.1800014,32.8866646 60.9,33.3 C60.6199986,33.7133354 60.2366691,34.0633319 59.75,34.35 C59.2633309,34.6366681 58.6900033,34.8566659 58.03,35.01 C57.3699967,35.1633341 56.6666704,35.24 55.92,35.24 C55.04,35.24 54.2900031,35.1700007 53.67,35.03 C53.0499969,34.8899993 52.5466686,34.7000012 52.16,34.46 C51.7733314,34.2199988 51.4900009,33.9466682 51.31,33.64 C51.1299991,33.3333318 51.04,33.013335 51.04,32.68 C51.04,32.3066648 51.1133326,31.986668 51.26,31.72 C51.4066674,31.453332 51.613332,31.220001 51.88,31.02 C52.146668,30.819999 52.4566649,30.653334 52.81,30.52 C53.1633351,30.386666 53.5533312,30.2666672 53.98,30.16 C53.779999,30.1066664 53.5866676,30.0400004 53.4,29.96 C53.2133324,29.8799996 53.0466674,29.7833339 52.9,29.67 C52.7533326,29.5566661 52.6333338,29.4233341 52.54,29.27 C52.4466662,29.1166659 52.4,28.940001 52.4,28.74 C52.4,28.5666658 52.4533328,28.3966675 52.56,28.23 C52.6666672,28.0633325 52.8066658,27.9100007 52.98,27.77 C53.1533342,27.6299993 53.339999,27.5033339 53.54,27.39 C53.740001,27.2766661 53.939999,27.1800004 54.14,27.1 C53.2999958,26.9133324 52.6333358,26.5500027 52.14,26.01 C51.6466642,25.4699973 51.4,24.78 51.4,23.94 C51.4,22.939995 51.8133292,22.1600028 52.64,21.6 C53.4666708,21.0399972 54.5866596,20.76 56,20.76 Z M58.52,32.52 C58.52,32.1599982 58.4100011,31.8700011 58.19,31.65 C57.9699989,31.4299989 57.6866684,31.2500007 57.34,31.11 C56.9933316,30.9699993 56.6033355,30.8500005 56.17,30.75 C55.7366645,30.6499995 55.3066688,30.533334 54.88,30.4 C54.5333316,30.666668 54.2866674,30.933332 54.14,31.2 C53.9933326,31.466668 53.92,31.7866648 53.92,32.16 C53.92,32.7733364 54.1299979,33.2499983 54.55,33.59 C54.9700021,33.9300017 55.5599962,34.1 56.32,34.1 C57.0666704,34.1 57.6199982,33.9433349 57.98,33.63 C58.3400018,33.3166651 58.52,32.9466688 58.52,32.52 Z M54.28,24.04 C54.28,24.7333368 54.3966655,25.2599982 54.63,25.62 C54.8633345,25.9800018 55.3199966,26.16 56,26.16 C56.6533366,26.16 57.1033321,25.9766685 57.35,25.61 C57.5966679,25.2433315 57.72,24.7200034 57.72,24.04 C57.72,23.3199964 57.5933346,22.7833351 57.34,22.43 C57.0866654,22.0766649 56.6400032,21.9 56,21.9 C55.33333,21.9 54.8800012,22.0733316 54.64,22.42 C54.3999988,22.7666684 54.28,23.306663 54.28,24.04 Z M71.4,28.1 C71.4,28.3933348 71.4033333,28.6466656 71.41,28.86 C71.4166667,29.0733344 71.4333332,29.2999988 71.46,29.54 L72.84,29.74 L72.84,30.44 C72.6799992,30.5200004 72.4633347,30.5999996 72.19,30.68 C71.9166653,30.76 71.6300015,30.8366663 71.33,30.91 C71.0299985,30.9833337 70.7333348,31.0433331 70.44,31.09 C70.1466652,31.1366669 69.8866678,31.1733332 69.66,31.2 L68.98,31.2 C68.846666,30.8933318 68.7666668,30.5866682 68.74,30.28 C68.7133332,29.9733318 68.6933334,29.6000022 68.68,29.16 L68.58,29.16 C68.513333,29.426668 68.4000008,29.6833321 68.24,29.93 C68.0799992,30.1766679 67.8766679,30.3966657 67.63,30.59 C67.3833321,30.7833343 67.093335,30.9399994 66.76,31.06 C66.426665,31.1800006 66.0533354,31.24 65.64,31.24 C65.1999978,31.24 64.7933352,31.173334 64.42,31.04 C64.0466648,30.906666 63.7200014,30.7200012 63.44,30.48 C63.1599986,30.2399988 62.9400008,29.9500017 62.78,29.61 C62.6199992,29.2699983 62.54,28.8866688 62.54,28.46 C62.54,27.859997 62.6533322,27.3666686 62.88,26.98 C63.1066678,26.5933314 63.4633309,26.2766679 63.95,26.03 C64.4366691,25.7833321 65.0633295,25.6000006 65.83,25.48 C66.5966705,25.3599994 67.5266612,25.2733336 68.62,25.22 C68.7266672,24.0733276 68.680001,23.233336 68.48,22.7 C68.279999,22.166664 67.84667,21.9 67.18,21.9 C66.7666646,21.9 66.3866684,21.966666 66.04,22.1 L65.1,24.5 L64.22,24.5 C64.1133328,24.3399992 64.0100005,24.1566677 63.91,23.95 C63.8099995,23.7433323 63.7166671,23.5233345 63.63,23.29 C63.5433329,23.0566655 63.4700003,22.8200012 63.41,22.58 C63.3499997,22.3399988 63.3066668,22.1066678 63.28,21.88 C63.7866692,21.5333316 64.439996,21.26 65.24,21.06 C66.04,20.859999 66.8866622,20.76 67.78,20.76 C68.54,20.76 69.1599976,20.8433325 69.64,21.01 C70.1200024,21.1766675 70.4966653,21.4033319 70.77,21.69 C71.0433347,21.9766681 71.2333328,22.3133314 71.34,22.7 C71.4466672,23.0866686 71.5,23.4999978 71.5,23.94 C71.5,24.740004 71.4833335,25.4633301 71.45,26.11 C71.4166665,26.7566699 71.4,27.4199966 71.4,28.1 Z M66.9,29.64 C67.1800014,29.64 67.419999,29.5866672 67.62,29.48 C67.820001,29.3733328 67.9899993,29.2466674 68.13,29.1 C68.2700007,28.9533326 68.3766663,28.7933342 68.45,28.62 C68.5233337,28.4466658 68.5799998,28.293334 68.62,28.16 L68.62,26.16 C67.9933302,26.1733334 67.480002,26.213333 67.08,26.28 C66.679998,26.346667 66.3666678,26.4566659 66.14,26.61 C65.9133322,26.7633341 65.7566671,26.9566655 65.67,27.19 C65.5833329,27.4233345 65.54,27.706665 65.54,28.04 C65.54,28.5466692 65.6599988,28.9399986 65.9,29.22 C66.1400012,29.5000014 66.4733312,29.64 66.9,29.64 Z M79.08,35 L73.56,35 L73.56,34.22 C74.0133356,34.0066656 74.4533312,33.8466672 74.88,33.74 L74.88,22.42 L73.56,22.26 L73.56,21.48 C73.7733344,21.3866662 74.0366651,21.3000004 74.35,21.22 C74.6633349,21.1399996 74.986665,21.0700003 75.32,21.01 C75.653335,20.9499997 75.9766651,20.9000002 76.29,20.86 C76.6033349,20.8199998 76.8666656,20.7866668 77.08,20.76 L77.76,20.76 L77.76,23 L77.78,23 C78.0066678,22.3599968 78.3633309,21.8266688 78.85,21.4 C79.3366691,20.9733312 80.013329,20.76 80.88,20.76 C81.4666696,20.76 81.9966643,20.8566657 82.47,21.05 C82.9433357,21.2433343 83.3433317,21.5433313 83.67,21.95 C83.9966683,22.3566687 84.2499991,22.8766635 84.43,23.51 C84.6100009,24.1433365 84.7,24.8999956 84.7,25.78 C84.7,26.6200042 84.5833345,27.3799966 84.35,28.06 C84.1166655,28.7400034 83.7833355,29.313331 83.35,29.78 C82.9166645,30.246669 82.3900031,30.6066654 81.77,30.86 C81.1499969,31.1133346 80.4466706,31.24 79.66,31.24 C79.2066644,31.24 78.8500013,31.2100003 78.59,31.15 C78.3299987,31.0899997 78.0533348,30.9866674 77.76,30.84 L77.76,33.74 C77.9733344,33.7666668 78.1866656,33.8166663 78.4,33.89 C78.6133344,33.9633337 78.8399988,34.0733326 79.08,34.22 L79.08,35 Z M79.72,22.36 C79.2666644,22.36 78.8633351,22.5199984 78.51,22.84 C78.1566649,23.1600016 77.9066674,23.65333 77.76,24.32 L77.76,29.64 C77.9733344,29.8000008 78.1999988,29.9166663 78.44,29.99 C78.6800012,30.0633337 78.9933314,30.1 79.38,30.1 C80.1400038,30.1 80.6999982,29.733337 81.06,29 C81.4200018,28.266663 81.6,27.1933404 81.6,25.78 C81.6,24.6866612 81.4633347,23.8433363 81.19,23.25 C80.9166653,22.6566637 80.4266702,22.36 79.72,22.36 Z M97.88,31 L92.58,31 L92.58,30.22 C92.7400008,30.1266662 92.9066658,30.0400004 93.08,29.96 C93.2533342,29.8799996 93.4533322,29.806667 93.68,29.74 L93.68,25.7 C93.68,24.5533276 93.5700011,23.7100027 93.35,23.17 C93.1299989,22.6299973 92.7000032,22.36 92.06,22.36 C91.526664,22.36 91.0733352,22.5433315 90.7,22.91 C90.3266648,23.2766685 90.0600008,23.6999976 89.9,24.18 L89.9,29.74 C90.1133344,29.7933336 90.3033325,29.853333 90.47,29.92 C90.6366675,29.986667 90.8133324,30.086666 91,30.22 L91,31 L85.7,31 L85.7,30.22 C86.1133354,30.0066656 86.553331,29.8466672 87.02,29.74 L87.02,17.62 L85.5,17.46 L85.5,16.68 C85.700001,16.5999996 85.9566651,16.5200004 86.27,16.44 C86.5833349,16.3599996 86.9133316,16.2900003 87.26,16.23 C87.6066684,16.1699997 87.9533316,16.1166669 88.3,16.07 C88.6466684,16.0233331 88.953332,15.9866668 89.22,15.96 L89.9,15.96 L89.9,23.02 L89.92,23.02 C90.053334,22.7133318 90.2333322,22.4233347 90.46,22.15 C90.6866678,21.8766653 90.9433319,21.6366677 91.23,21.43 C91.5166681,21.2233323 91.826665,21.0600006 92.16,20.94 C92.493335,20.8199994 92.8466648,20.76 93.22,20.76 C93.753336,20.76 94.2299979,20.8233327 94.65,20.95 C95.0700021,21.0766673 95.4199986,21.2999984 95.7,21.62 C95.9800014,21.9400016 96.1933326,22.3699973 96.34,22.91 C96.4866674,23.4500027 96.56,24.1333292 96.56,24.96 L96.56,29.74 C96.7866678,29.7933336 97.0133322,29.853333 97.24,29.92 C97.4666678,29.986667 97.679999,30.086666 97.88,30.22 L97.88,31 Z M98.74,26 C98.74,25.1866626 98.8633321,24.4566699 99.11,23.81 C99.3566679,23.1633301 99.7099977,22.6133356 100.17,22.16 C100.630002,21.7066644 101.186663,21.3600012 101.84,21.12 C102.493337,20.8799988 103.233329,20.76 104.06,20.76 C104.993338,20.76 105.796663,20.8899987 106.47,21.15 C107.143337,21.4100013 107.696664,21.7699977 108.13,22.23 C108.563335,22.6900023 108.879999,23.2433301 109.08,23.89 C109.280001,24.5366699 109.38,25.2399962 109.38,26 C109.38,26.8133374 109.260001,27.5433301 109.02,28.19 C108.779999,28.8366699 108.430002,29.3866644 107.97,29.84 C107.509998,30.2933356 106.950003,30.6399988 106.29,30.88 C105.629997,31.1200012 104.886671,31.24 104.06,31.24 C103.153329,31.24 102.36667,31.1100013 101.7,30.85 C101.03333,30.5899987 100.480002,30.2300023 100.04,29.77 C99.5999978,29.3099977 99.2733344,28.7566699 99.06,28.11 C98.8466656,27.4633301 98.74,26.76 98.74,26 Z M101.84,26 C101.84,26.600003 101.876666,27.1499975 101.95,27.65 C102.023334,28.1500025 102.153332,28.5733316 102.34,28.92 C102.526668,29.2666684 102.779998,29.5366657 103.1,29.73 C103.420002,29.9233343 103.833331,30.02 104.34,30.02 C104.633335,30.02 104.899999,29.9500007 105.14,29.81 C105.380001,29.6699993 105.586666,29.4433349 105.76,29.13 C105.933334,28.8166651 106.063333,28.4033359 106.15,27.89 C106.236667,27.3766641 106.28,26.7466704 106.28,26 C106.28,25.3866636 106.243334,24.8333358 106.17,24.34 C106.096666,23.8466642 105.970001,23.4266684 105.79,23.08 C105.609999,22.7333316 105.366668,22.4633343 105.06,22.27 C104.753332,22.0766657 104.366669,21.98 103.9,21.98 C103.553332,21.98 103.253335,22.0499993 103,22.19 C102.746665,22.3300007 102.533334,22.5566651 102.36,22.87 C102.186666,23.1833349 102.056667,23.5966641 101.97,24.11 C101.883333,24.6233359 101.84,25.2533296 101.84,26 Z M122.64,31 L117.34,31 L117.34,30.22 C117.513334,30.1266662 117.683332,30.0433337 117.85,29.97 C118.016667,29.8966663 118.213332,29.8200004 118.44,29.74 L118.44,25.04 C118.44,24.1999958 118.320001,23.5433357 118.08,23.07 C117.839999,22.5966643 117.413336,22.36 116.8,22.36 C116.293331,22.36 115.856668,22.5233317 115.49,22.85 C115.123331,23.1766683 114.846668,23.6199972 114.66,24.18 L114.66,29.74 C114.873334,29.7933336 115.063333,29.8566663 115.23,29.93 C115.396668,30.0033337 115.573332,30.0999994 115.76,30.22 L115.76,31 L110.46,31 L110.46,30.22 C110.793335,30.0466658 111.233331,29.8866674 111.78,29.74 L111.78,22.42 L110.46,22.26 L110.46,21.48 C110.633334,21.3999996 110.859999,21.3233337 111.14,21.25 C111.420001,21.1766663 111.723332,21.106667 112.05,21.04 C112.376668,20.973333 112.709998,20.9166669 113.05,20.87 C113.390002,20.8233331 113.699999,20.7866668 113.98,20.76 L114.66,20.76 L114.66,22.82 L114.68,22.82 C114.96,22.26 115.379997,21.7766687 115.94,21.37 C116.500003,20.9633313 117.179996,20.76 117.98,20.76 C118.500003,20.76 118.966665,20.8233327 119.38,20.95 C119.793335,21.0766673 120.143332,21.2999984 120.43,21.62 C120.716668,21.9400016 120.936666,22.3699973 121.09,22.91 C121.243334,23.4500027 121.32,24.1333292 121.32,24.96 L121.32,29.74 C121.853336,29.8333338 122.293332,29.9933322 122.64,30.22 L122.64,31 Z M132.6,29.32 C132.493333,29.5466678 132.323334,29.7766655 132.09,30.01 C131.856665,30.2433345 131.570002,30.4499991 131.23,30.63 C130.889998,30.8100009 130.496669,30.9566661 130.05,31.07 C129.603331,31.1833339 129.120003,31.24 128.6,31.24 C127.773329,31.24 127.040003,31.1166679 126.4,30.87 C125.759997,30.6233321 125.226669,30.2700023 124.8,29.81 C124.373331,29.3499977 124.050001,28.8000032 123.83,28.16 C123.609999,27.5199968 123.5,26.800004 123.5,26 C123.5,24.2933248 123.946662,22.9933378 124.84,22.1 C125.733338,21.2066622 126.973325,20.76 128.56,20.76 C129.240003,20.76 129.876664,20.8533324 130.47,21.04 C131.063336,21.2266676 131.556665,21.5333312 131.95,21.96 C132.343335,22.3866688 132.616666,22.9466632 132.77,23.64 C132.923334,24.3333368 132.913334,25.179995 132.74,26.18 L126.6,26.18 C126.613333,27.2333386 126.883331,28.0733302 127.41,28.7 C127.936669,29.3266698 128.713328,29.64 129.74,29.64 C130.180002,29.64 130.636664,29.573334 131.11,29.44 C131.583336,29.306666 131.953332,29.1333344 132.22,28.92 L132.6,29.32 Z M128.48,21.9 C128.213332,21.9 127.976668,21.9466662 127.77,22.04 C127.563332,22.1333338 127.383334,22.3033321 127.23,22.55 C127.076666,22.7966679 126.953334,23.1299979 126.86,23.55 C126.766666,23.9700021 126.7,24.4999968 126.66,25.14 L129.88,25.14 C129.973334,24.0999948 129.913334,23.3000028 129.7,22.74 C129.486666,22.1799972 129.080003,21.9 128.48,21.9 Z" id="Megaphone" fill="#2B1813" fill-rule="nonzero"></path>
    </g>
</svg>