<?xml version="1.0" encoding="UTF-8"?>
<svg width="154px" height="50px" viewBox="0 0 154 50" version="1.1" xmlns="http://www.w3.org/2000/svg" xmlns:xlink="http://www.w3.org/1999/xlink">
    <!-- Generator: Sketch 57.1 (83088) - https://sketch.com -->
    <title>preset_color_17</title>
    <desc>Created with Sketch.</desc>
    <g id="preset_color_17" stroke="none" stroke-width="1" fill="none" fill-rule="evenodd">
        <rect fill="#414851" x="0" y="0" width="154" height="50"></rect>
        <rect id="Rectangle" fill="#43B73A" x="76" y="0" width="78" height="50"></rect>
    </g>
</svg>