<?xml version="1.0" encoding="UTF-8"?>
<svg width="154px" height="94px" viewBox="0 0 154 94" version="1.1" xmlns="http://www.w3.org/2000/svg" xmlns:xlink="http://www.w3.org/1999/xlink">
    <!-- Generator: Sketch 56.2 (81672) - https://sketch.com -->
    <title>welcome_layout_3</title>
    <desc>Created with Sketch.</desc>
    <g id="welcome_layout_3" stroke="none" stroke-width="1" fill="none" fill-rule="evenodd">
        <rect fill="#FFFFFF" x="0" y="0" width="154" height="94"></rect>
        <g id="Group" transform="translate(77.000000, 36.000000)" stroke="#B5B5B5" stroke-linecap="square" stroke-width="2">
            <path d="M0,6 L42,6" id="Line"></path>
            <path d="M0,1 L42,1" id="Line"></path>
            <path d="M0,11 L42,11" id="Line"></path>
            <path d="M0,16 L42,16" id="Line"></path>
            <path d="M0,21 L25,21" id="Line"></path>
        </g>
        <rect id="Rectangle" fill="#B5B5B5" fill-rule="nonzero" x="22" y="25" width="44" height="44" rx="22"></rect>
    </g>
</svg>